^C:\USERS\LEO\DOCUMENTS\PAST PROJECTS\CC3K\GAME FILES\CHARACTER\CHARACTER.CC
/c /Zi /nologo /W3 /WX- /diagnostics:classic /Od /Oy- /D WIN32 /D _DEBUG /D _WINDOWS /Gm- /EHsc /RTC1 /MDd /GS /fp:precise /Zc:wchar_t /Zc:forScope /Zc:inline /Fo"DEBUG\\" /Fd"DEBUG\VC141.PDB" /Gd /TP /analyze- /FC C:\USERS\LEO\DOCUMENTS\PAST PROJECTS\CC3K\GAME FILES\CHARACTER\CHARACTER.CC
^C:\USERS\LEO\DOCUMENTS\PAST PROJECTS\CC3K\GAME FILES\CHARACTER\ENEMYRACE\DRAGON.CC
/c /Zi /nologo /W3 /WX- /diagnostics:classic /Od /Oy- /D WIN32 /D _DEBUG /D _WINDOWS /Gm- /EHsc /RTC1 /MDd /GS /fp:precise /Zc:wchar_t /Zc:forScope /Zc:inline /Fo"DEBUG\\" /Fd"DEBUG\VC141.PDB" /Gd /TP /analyze- /FC C:\USERS\LEO\DOCUMENTS\PAST PROJECTS\CC3K\GAME FILES\CHARACTER\ENEMYRACE\DRAGON.CC
^C:\USERS\LEO\DOCUMENTS\PAST PROJECTS\CC3K\GAME FILES\CHARACTER\ENEMYRACE\DWARF.CC
/c /Zi /nologo /W3 /WX- /diagnostics:classic /Od /Oy- /D WIN32 /D _DEBUG /D _WINDOWS /Gm- /EHsc /RTC1 /MDd /GS /fp:precise /Zc:wchar_t /Zc:forScope /Zc:inline /Fo"DEBUG\\" /Fd"DEBUG\VC141.PDB" /Gd /TP /analyze- /FC C:\USERS\LEO\DOCUMENTS\PAST PROJECTS\CC3K\GAME FILES\CHARACTER\ENEMYRACE\DWARF.CC
^C:\USERS\LEO\DOCUMENTS\PAST PROJECTS\CC3K\GAME FILES\CHARACTER\ENEMYRACE\ELF.CC
/c /Zi /nologo /W3 /WX- /diagnostics:classic /Od /Oy- /D WIN32 /D _DEBUG /D _WINDOWS /Gm- /EHsc /RTC1 /MDd /GS /fp:precise /Zc:wchar_t /Zc:forScope /Zc:inline /Fo"DEBUG\\" /Fd"DEBUG\VC141.PDB" /Gd /TP /analyze- /FC C:\USERS\LEO\DOCUMENTS\PAST PROJECTS\CC3K\GAME FILES\CHARACTER\ENEMYRACE\ELF.CC
^C:\USERS\LEO\DOCUMENTS\PAST PROJECTS\CC3K\GAME FILES\CHARACTER\ENEMYRACE\ENEMYRACE.CC
/c /Zi /nologo /W3 /WX- /diagnostics:classic /Od /Oy- /D WIN32 /D _DEBUG /D _WINDOWS /Gm- /EHsc /RTC1 /MDd /GS /fp:precise /Zc:wchar_t /Zc:forScope /Zc:inline /Fo"DEBUG\\" /Fd"DEBUG\VC141.PDB" /Gd /TP /analyze- /FC C:\USERS\LEO\DOCUMENTS\PAST PROJECTS\CC3K\GAME FILES\CHARACTER\ENEMYRACE\ENEMYRACE.CC
^C:\USERS\LEO\DOCUMENTS\PAST PROJECTS\CC3K\GAME FILES\CHARACTER\ENEMYRACE\HALFLING.CC
/c /Zi /nologo /W3 /WX- /diagnostics:classic /Od /Oy- /D WIN32 /D _DEBUG /D _WINDOWS /Gm- /EHsc /RTC1 /MDd /GS /fp:precise /Zc:wchar_t /Zc:forScope /Zc:inline /Fo"DEBUG\\" /Fd"DEBUG\VC141.PDB" /Gd /TP /analyze- /FC C:\USERS\LEO\DOCUMENTS\PAST PROJECTS\CC3K\GAME FILES\CHARACTER\ENEMYRACE\HALFLING.CC
^C:\USERS\LEO\DOCUMENTS\PAST PROJECTS\CC3K\GAME FILES\CHARACTER\ENEMYRACE\HUMAN.CC
/c /Zi /nologo /W3 /WX- /diagnostics:classic /Od /Oy- /D WIN32 /D _DEBUG /D _WINDOWS /Gm- /EHsc /RTC1 /MDd /GS /fp:precise /Zc:wchar_t /Zc:forScope /Zc:inline /Fo"DEBUG\\" /Fd"DEBUG\VC141.PDB" /Gd /TP /analyze- /FC C:\USERS\LEO\DOCUMENTS\PAST PROJECTS\CC3K\GAME FILES\CHARACTER\ENEMYRACE\HUMAN.CC
^C:\USERS\LEO\DOCUMENTS\PAST PROJECTS\CC3K\GAME FILES\CHARACTER\ENEMYRACE\MERCHANT.CC
/c /Zi /nologo /W3 /WX- /diagnostics:classic /Od /Oy- /D WIN32 /D _DEBUG /D _WINDOWS /Gm- /EHsc /RTC1 /MDd /GS /fp:precise /Zc:wchar_t /Zc:forScope /Zc:inline /Fo"DEBUG\\" /Fd"DEBUG\VC141.PDB" /Gd /TP /analyze- /FC C:\USERS\LEO\DOCUMENTS\PAST PROJECTS\CC3K\GAME FILES\CHARACTER\ENEMYRACE\MERCHANT.CC
^C:\USERS\LEO\DOCUMENTS\PAST PROJECTS\CC3K\GAME FILES\CHARACTER\ENEMYRACE\ORC.CC
/c /Zi /nologo /W3 /WX- /diagnostics:classic /Od /Oy- /D WIN32 /D _DEBUG /D _WINDOWS /Gm- /EHsc /RTC1 /MDd /GS /fp:precise /Zc:wchar_t /Zc:forScope /Zc:inline /Fo"DEBUG\\" /Fd"DEBUG\VC141.PDB" /Gd /TP /analyze- /FC C:\USERS\LEO\DOCUMENTS\PAST PROJECTS\CC3K\GAME FILES\CHARACTER\ENEMYRACE\ORC.CC
^C:\USERS\LEO\DOCUMENTS\PAST PROJECTS\CC3K\GAME FILES\CHARACTER\PLAYERRACE\DROW.CC
/c /Zi /nologo /W3 /WX- /diagnostics:classic /Od /Oy- /D WIN32 /D _DEBUG /D _WINDOWS /Gm- /EHsc /RTC1 /MDd /GS /fp:precise /Zc:wchar_t /Zc:forScope /Zc:inline /Fo"DEBUG\\" /Fd"DEBUG\VC141.PDB" /Gd /TP /analyze- /FC C:\USERS\LEO\DOCUMENTS\PAST PROJECTS\CC3K\GAME FILES\CHARACTER\PLAYERRACE\DROW.CC
^C:\USERS\LEO\DOCUMENTS\PAST PROJECTS\CC3K\GAME FILES\CHARACTER\PLAYERRACE\GOBLIN.CC
/c /Zi /nologo /W3 /WX- /diagnostics:classic /Od /Oy- /D WIN32 /D _DEBUG /D _WINDOWS /Gm- /EHsc /RTC1 /MDd /GS /fp:precise /Zc:wchar_t /Zc:forScope /Zc:inline /Fo"DEBUG\\" /Fd"DEBUG\VC141.PDB" /Gd /TP /analyze- /FC C:\USERS\LEO\DOCUMENTS\PAST PROJECTS\CC3K\GAME FILES\CHARACTER\PLAYERRACE\GOBLIN.CC
^C:\USERS\LEO\DOCUMENTS\PAST PROJECTS\CC3K\GAME FILES\CHARACTER\PLAYERRACE\PLAYERRACE.CC
/c /Zi /nologo /W3 /WX- /diagnostics:classic /Od /Oy- /D WIN32 /D _DEBUG /D _WINDOWS /Gm- /EHsc /RTC1 /MDd /GS /fp:precise /Zc:wchar_t /Zc:forScope /Zc:inline /Fo"DEBUG\\" /Fd"DEBUG\VC141.PDB" /Gd /TP /analyze- /FC C:\USERS\LEO\DOCUMENTS\PAST PROJECTS\CC3K\GAME FILES\CHARACTER\PLAYERRACE\PLAYERRACE.CC
^C:\USERS\LEO\DOCUMENTS\PAST PROJECTS\CC3K\GAME FILES\CHARACTER\PLAYERRACE\SHADE.CC
/c /Zi /nologo /W3 /WX- /diagnostics:classic /Od /Oy- /D WIN32 /D _DEBUG /D _WINDOWS /Gm- /EHsc /RTC1 /MDd /GS /fp:precise /Zc:wchar_t /Zc:forScope /Zc:inline /Fo"DEBUG\\" /Fd"DEBUG\VC141.PDB" /Gd /TP /analyze- /FC C:\USERS\LEO\DOCUMENTS\PAST PROJECTS\CC3K\GAME FILES\CHARACTER\PLAYERRACE\SHADE.CC
^C:\USERS\LEO\DOCUMENTS\PAST PROJECTS\CC3K\GAME FILES\CHARACTER\PLAYERRACE\TROLL.CC
/c /Zi /nologo /W3 /WX- /diagnostics:classic /Od /Oy- /D WIN32 /D _DEBUG /D _WINDOWS /Gm- /EHsc /RTC1 /MDd /GS /fp:precise /Zc:wchar_t /Zc:forScope /Zc:inline /Fo"DEBUG\\" /Fd"DEBUG\VC141.PDB" /Gd /TP /analyze- /FC C:\USERS\LEO\DOCUMENTS\PAST PROJECTS\CC3K\GAME FILES\CHARACTER\PLAYERRACE\TROLL.CC
^C:\USERS\LEO\DOCUMENTS\PAST PROJECTS\CC3K\GAME FILES\CHARACTER\PLAYERRACE\VAMPIRE.CC
/c /Zi /nologo /W3 /WX- /diagnostics:classic /Od /Oy- /D WIN32 /D _DEBUG /D _WINDOWS /Gm- /EHsc /RTC1 /MDd /GS /fp:precise /Zc:wchar_t /Zc:forScope /Zc:inline /Fo"DEBUG\\" /Fd"DEBUG\VC141.PDB" /Gd /TP /analyze- /FC C:\USERS\LEO\DOCUMENTS\PAST PROJECTS\CC3K\GAME FILES\CHARACTER\PLAYERRACE\VAMPIRE.CC
^C:\USERS\LEO\DOCUMENTS\PAST PROJECTS\CC3K\GAME FILES\COORDINATE.CC
/c /Zi /nologo /W3 /WX- /diagnostics:classic /Od /Oy- /D WIN32 /D _DEBUG /D _WINDOWS /Gm- /EHsc /RTC1 /MDd /GS /fp:precise /Zc:wchar_t /Zc:forScope /Zc:inline /Fo"DEBUG\\" /Fd"DEBUG\VC141.PDB" /Gd /TP /analyze- /FC C:\USERS\LEO\DOCUMENTS\PAST PROJECTS\CC3K\GAME FILES\COORDINATE.CC
^C:\USERS\LEO\DOCUMENTS\PAST PROJECTS\CC3K\GAME FILES\DISPLAY\TEXTDISPLAY.CC
/c /Zi /nologo /W3 /WX- /diagnostics:classic /Od /Oy- /D WIN32 /D _DEBUG /D _WINDOWS /Gm- /EHsc /RTC1 /MDd /GS /fp:precise /Zc:wchar_t /Zc:forScope /Zc:inline /Fo"DEBUG\\" /Fd"DEBUG\VC141.PDB" /Gd /TP /analyze- /FC C:\USERS\LEO\DOCUMENTS\PAST PROJECTS\CC3K\GAME FILES\DISPLAY\TEXTDISPLAY.CC
^C:\USERS\LEO\DOCUMENTS\PAST PROJECTS\CC3K\GAME FILES\DUNGEON.CC
/c /Zi /nologo /W3 /WX- /diagnostics:classic /Od /Oy- /D WIN32 /D _DEBUG /D _WINDOWS /Gm- /EHsc /RTC1 /MDd /GS /fp:precise /Zc:wchar_t /Zc:forScope /Zc:inline /Fo"DEBUG\\" /Fd"DEBUG\VC141.PDB" /Gd /TP /analyze- /FC C:\USERS\LEO\DOCUMENTS\PAST PROJECTS\CC3K\GAME FILES\DUNGEON.CC
^C:\USERS\LEO\DOCUMENTS\PAST PROJECTS\CC3K\GAME FILES\ITEM\GOLD\DHOARD.CC
/c /Zi /nologo /W3 /WX- /diagnostics:classic /Od /Oy- /D WIN32 /D _DEBUG /D _WINDOWS /Gm- /EHsc /RTC1 /MDd /GS /fp:precise /Zc:wchar_t /Zc:forScope /Zc:inline /Fo"DEBUG\\" /Fd"DEBUG\VC141.PDB" /Gd /TP /analyze- /FC C:\USERS\LEO\DOCUMENTS\PAST PROJECTS\CC3K\GAME FILES\ITEM\GOLD\DHOARD.CC
^C:\USERS\LEO\DOCUMENTS\PAST PROJECTS\CC3K\GAME FILES\ITEM\GOLD\MHOARD.CC
/c /Zi /nologo /W3 /WX- /diagnostics:classic /Od /Oy- /D WIN32 /D _DEBUG /D _WINDOWS /Gm- /EHsc /RTC1 /MDd /GS /fp:precise /Zc:wchar_t /Zc:forScope /Zc:inline /Fo"DEBUG\\" /Fd"DEBUG\VC141.PDB" /Gd /TP /analyze- /FC C:\USERS\LEO\DOCUMENTS\PAST PROJECTS\CC3K\GAME FILES\ITEM\GOLD\MHOARD.CC
^C:\USERS\LEO\DOCUMENTS\PAST PROJECTS\CC3K\GAME FILES\ITEM\GOLD\NORMAL.CC
/c /Zi /nologo /W3 /WX- /diagnostics:classic /Od /Oy- /D WIN32 /D _DEBUG /D _WINDOWS /Gm- /EHsc /RTC1 /MDd /GS /fp:precise /Zc:wchar_t /Zc:forScope /Zc:inline /Fo"DEBUG\\" /Fd"DEBUG\VC141.PDB" /Gd /TP /analyze- /FC C:\USERS\LEO\DOCUMENTS\PAST PROJECTS\CC3K\GAME FILES\ITEM\GOLD\NORMAL.CC
^C:\USERS\LEO\DOCUMENTS\PAST PROJECTS\CC3K\GAME FILES\ITEM\GOLD\SMALL.CC
/c /Zi /nologo /W3 /WX- /diagnostics:classic /Od /Oy- /D WIN32 /D _DEBUG /D _WINDOWS /Gm- /EHsc /RTC1 /MDd /GS /fp:precise /Zc:wchar_t /Zc:forScope /Zc:inline /Fo"DEBUG\\" /Fd"DEBUG\VC141.PDB" /Gd /TP /analyze- /FC C:\USERS\LEO\DOCUMENTS\PAST PROJECTS\CC3K\GAME FILES\ITEM\GOLD\SMALL.CC
^C:\USERS\LEO\DOCUMENTS\PAST PROJECTS\CC3K\GAME FILES\ITEM\GOLD\TREASURE.CC
/c /Zi /nologo /W3 /WX- /diagnostics:classic /Od /Oy- /D WIN32 /D _DEBUG /D _WINDOWS /Gm- /EHsc /RTC1 /MDd /GS /fp:precise /Zc:wchar_t /Zc:forScope /Zc:inline /Fo"DEBUG\\" /Fd"DEBUG\VC141.PDB" /Gd /TP /analyze- /FC C:\USERS\LEO\DOCUMENTS\PAST PROJECTS\CC3K\GAME FILES\ITEM\GOLD\TREASURE.CC
^C:\USERS\LEO\DOCUMENTS\PAST PROJECTS\CC3K\GAME FILES\ITEM\ITEM.CC
/c /Zi /nologo /W3 /WX- /diagnostics:classic /Od /Oy- /D WIN32 /D _DEBUG /D _WINDOWS /Gm- /EHsc /RTC1 /MDd /GS /fp:precise /Zc:wchar_t /Zc:forScope /Zc:inline /Fo"DEBUG\\" /Fd"DEBUG\VC141.PDB" /Gd /TP /analyze- /FC C:\USERS\LEO\DOCUMENTS\PAST PROJECTS\CC3K\GAME FILES\ITEM\ITEM.CC
^C:\USERS\LEO\DOCUMENTS\PAST PROJECTS\CC3K\GAME FILES\ITEM\POTIONS\BOOSTATK.CC
/c /Zi /nologo /W3 /WX- /diagnostics:classic /Od /Oy- /D WIN32 /D _DEBUG /D _WINDOWS /Gm- /EHsc /RTC1 /MDd /GS /fp:precise /Zc:wchar_t /Zc:forScope /Zc:inline /Fo"DEBUG\\" /Fd"DEBUG\VC141.PDB" /Gd /TP /analyze- /FC C:\USERS\LEO\DOCUMENTS\PAST PROJECTS\CC3K\GAME FILES\ITEM\POTIONS\BOOSTATK.CC
^C:\USERS\LEO\DOCUMENTS\PAST PROJECTS\CC3K\GAME FILES\ITEM\POTIONS\BOOSTDEF.CC
/c /Zi /nologo /W3 /WX- /diagnostics:classic /Od /Oy- /D WIN32 /D _DEBUG /D _WINDOWS /Gm- /EHsc /RTC1 /MDd /GS /fp:precise /Zc:wchar_t /Zc:forScope /Zc:inline /Fo"DEBUG\\" /Fd"DEBUG\VC141.PDB" /Gd /TP /analyze- /FC C:\USERS\LEO\DOCUMENTS\PAST PROJECTS\CC3K\GAME FILES\ITEM\POTIONS\BOOSTDEF.CC
^C:\USERS\LEO\DOCUMENTS\PAST PROJECTS\CC3K\GAME FILES\ITEM\POTIONS\POISONHEALTH.CC
/c /Zi /nologo /W3 /WX- /diagnostics:classic /Od /Oy- /D WIN32 /D _DEBUG /D _WINDOWS /Gm- /EHsc /RTC1 /MDd /GS /fp:precise /Zc:wchar_t /Zc:forScope /Zc:inline /Fo"DEBUG\\" /Fd"DEBUG\VC141.PDB" /Gd /TP /analyze- /FC C:\USERS\LEO\DOCUMENTS\PAST PROJECTS\CC3K\GAME FILES\ITEM\POTIONS\POISONHEALTH.CC
^C:\USERS\LEO\DOCUMENTS\PAST PROJECTS\CC3K\GAME FILES\ITEM\POTIONS\POTION.CC
/c /Zi /nologo /W3 /WX- /diagnostics:classic /Od /Oy- /D WIN32 /D _DEBUG /D _WINDOWS /Gm- /EHsc /RTC1 /MDd /GS /fp:precise /Zc:wchar_t /Zc:forScope /Zc:inline /Fo"DEBUG\\" /Fd"DEBUG\VC141.PDB" /Gd /TP /analyze- /FC C:\USERS\LEO\DOCUMENTS\PAST PROJECTS\CC3K\GAME FILES\ITEM\POTIONS\POTION.CC
^C:\USERS\LEO\DOCUMENTS\PAST PROJECTS\CC3K\GAME FILES\ITEM\POTIONS\RESTOREHEALTH.CC
/c /Zi /nologo /W3 /WX- /diagnostics:classic /Od /Oy- /D WIN32 /D _DEBUG /D _WINDOWS /Gm- /EHsc /RTC1 /MDd /GS /fp:precise /Zc:wchar_t /Zc:forScope /Zc:inline /Fo"DEBUG\\" /Fd"DEBUG\VC141.PDB" /Gd /TP /analyze- /FC C:\USERS\LEO\DOCUMENTS\PAST PROJECTS\CC3K\GAME FILES\ITEM\POTIONS\RESTOREHEALTH.CC
^C:\USERS\LEO\DOCUMENTS\PAST PROJECTS\CC3K\GAME FILES\ITEM\POTIONS\WOUNDATK.CC
/c /Zi /nologo /W3 /WX- /diagnostics:classic /Od /Oy- /D WIN32 /D _DEBUG /D _WINDOWS /Gm- /EHsc /RTC1 /MDd /GS /fp:precise /Zc:wchar_t /Zc:forScope /Zc:inline /Fo"DEBUG\\" /Fd"DEBUG\VC141.PDB" /Gd /TP /analyze- /FC C:\USERS\LEO\DOCUMENTS\PAST PROJECTS\CC3K\GAME FILES\ITEM\POTIONS\WOUNDATK.CC
^C:\USERS\LEO\DOCUMENTS\PAST PROJECTS\CC3K\GAME FILES\ITEM\POTIONS\WOUNDDEF.CC
/c /Zi /nologo /W3 /WX- /diagnostics:classic /Od /Oy- /D WIN32 /D _DEBUG /D _WINDOWS /Gm- /EHsc /RTC1 /MDd /GS /fp:precise /Zc:wchar_t /Zc:forScope /Zc:inline /Fo"DEBUG\\" /Fd"DEBUG\VC141.PDB" /Gd /TP /analyze- /FC C:\USERS\LEO\DOCUMENTS\PAST PROJECTS\CC3K\GAME FILES\ITEM\POTIONS\WOUNDDEF.CC
^C:\USERS\LEO\DOCUMENTS\PAST PROJECTS\CC3K\GAME FILES\MAIN.CC
/c /Zi /nologo /W3 /WX- /diagnostics:classic /Od /Oy- /D WIN32 /D _DEBUG /D _WINDOWS /Gm- /EHsc /RTC1 /MDd /GS /fp:precise /Zc:wchar_t /Zc:forScope /Zc:inline /Fo"DEBUG\\" /Fd"DEBUG\VC141.PDB" /Gd /TP /analyze- /FC C:\USERS\LEO\DOCUMENTS\PAST PROJECTS\CC3K\GAME FILES\MAIN.CC
^C:\USERS\LEO\DOCUMENTS\PAST PROJECTS\CC3K\GAME FILES\MAP\CELL\CELL.CC
/c /Zi /nologo /W3 /WX- /diagnostics:classic /Od /Oy- /D WIN32 /D _DEBUG /D _WINDOWS /Gm- /EHsc /RTC1 /MDd /GS /fp:precise /Zc:wchar_t /Zc:forScope /Zc:inline /Fo"DEBUG\\" /Fd"DEBUG\VC141.PDB" /Gd /TP /analyze- /FC C:\USERS\LEO\DOCUMENTS\PAST PROJECTS\CC3K\GAME FILES\MAP\CELL\CELL.CC
^C:\USERS\LEO\DOCUMENTS\PAST PROJECTS\CC3K\GAME FILES\MAP\FLOOR\CHAMBER.CC
/c /Zi /nologo /W3 /WX- /diagnostics:classic /Od /Oy- /D WIN32 /D _DEBUG /D _WINDOWS /Gm- /EHsc /RTC1 /MDd /GS /fp:precise /Zc:wchar_t /Zc:forScope /Zc:inline /Fo"DEBUG\\" /Fd"DEBUG\VC141.PDB" /Gd /TP /analyze- /FC C:\USERS\LEO\DOCUMENTS\PAST PROJECTS\CC3K\GAME FILES\MAP\FLOOR\CHAMBER.CC
^C:\USERS\LEO\DOCUMENTS\PAST PROJECTS\CC3K\GAME FILES\MAP\FLOOR\FLOOR.CC
/c /Zi /nologo /W3 /WX- /diagnostics:classic /Od /Oy- /D WIN32 /D _DEBUG /D _WINDOWS /Gm- /EHsc /RTC1 /MDd /GS /fp:precise /Zc:wchar_t /Zc:forScope /Zc:inline /Fo"DEBUG\\" /Fd"DEBUG\VC141.PDB" /Gd /TP /analyze- /FC C:\USERS\LEO\DOCUMENTS\PAST PROJECTS\CC3K\GAME FILES\MAP\FLOOR\FLOOR.CC
^C:\USERS\LEO\DOCUMENTS\PAST PROJECTS\CC3K\GAME FILES\STATS.CC
/c /Zi /nologo /W3 /WX- /diagnostics:classic /Od /Oy- /D WIN32 /D _DEBUG /D _WINDOWS /Gm- /EHsc /RTC1 /MDd /GS /fp:precise /Zc:wchar_t /Zc:forScope /Zc:inline /Fo"DEBUG\\" /Fd"DEBUG\VC141.PDB" /Gd /TP /analyze- /FC C:\USERS\LEO\DOCUMENTS\PAST PROJECTS\CC3K\GAME FILES\STATS.CC
